#
# There is insufficient memory for the Java Runtime Environment to continue.
# Native memory allocation (malloc) failed to allocate 32744 bytes for ChunkPool::allocate
# Possible reasons:
#   The system is out of physical RAM or swap space
#   In 32 bit mode, the process size limit was hit
# Possible solutions:
#   Reduce memory load on the system
#   Increase physical memory or swap space
#   Check if swap backing store is full
#   Use 64 bit Java on a 64 bit OS
#   Decrease Java heap size (-Xmx/-Xms)
#   Decrease number of Java threads
#   Decrease Java thread stack sizes (-Xss)
#   Set larger code cache with -XX:ReservedCodeCacheSize=
# This output file may be truncated or incomplete.
#
#  Out of Memory Error (allocation.cpp:273), pid=2844, tid=7732
#
# JRE version: Java(TM) SE Runtime Environment (8.0_91-b14) (build 1.8.0_91-b14)
# Java VM: Java HotSpot(TM) 64-Bit Server VM (25.91-b14 mixed mode windows-amd64 compressed oops)
# Core dump written. Default location: C:\Users\Administrator\Downloads\test\hs_err_pid2844.mdmp
#

---------------  T H R E A D  ---------------

Current thread (0x0000000016505800):  JavaThread "C2 CompilerThread0" daemon [_thread_in_native, id=7732, stack(0x00000000181a0000,0x00000000182a0000)]

Stack: [0x00000000181a0000,0x00000000182a0000]
[error occurred during error reporting (printing stack bounds), id 0xc0000005]

Native frames: (J=compiled Java code, j=interpreted, Vv=VM code, C=native code)


Current CompileTask:
C2:  90429 10928       4       com.android.tools.r8.code.BaseInstructionFactory::create (3362 bytes)


---------------  P R O C E S S  ---------------

Java Threads: ( => current thread )
  0x000000001c7d0800 JavaThread "ForkJoinPool-2-worker-3" daemon [_thread_blocked, id=8092, stack(0x0000000025b80000,0x0000000025c80000)]
  0x000000001c7d3800 JavaThread "ForkJoinPool-2-worker-2" daemon [_thread_blocked, id=4748, stack(0x0000000025a80000,0x0000000025b80000)]
  0x000000001c7d2000 JavaThread "ForkJoinPool.commonPool-worker-2" daemon [_thread_blocked, id=5624, stack(0x00000000251c0000,0x00000000252c0000)]
  0x000000001c7d2800 JavaThread "ForkJoinPool.commonPool-worker-1" daemon [_thread_blocked, id=7152, stack(0x0000000023ef0000,0x0000000023ff0000)]
  0x000000001c7d1000 JavaThread "ForkJoinPool.commonPool-worker-0" daemon [_thread_blocked, id=7636, stack(0x0000000023930000,0x0000000023a30000)]
  0x000000001c7cf000 JavaThread "ForkJoinPool.commonPool-worker-6" daemon [_thread_blocked, id=5592, stack(0x0000000023530000,0x0000000023630000)]
  0x000000001c7c9800 JavaThread "Cache worker for Java compile cache (C:\Users\Administrator\Downloads\test\.gradle\4.4\javaCompile)" [_thread_blocked, id=3720, stack(0x0000000023430000,0x0000000023530000)]
  0x000000001c7c9000 JavaThread "Task worker for ':' Thread 5" [_thread_blocked, id=8156, stack(0x0000000023330000,0x0000000023430000)]
  0x000000001c7cc000 JavaThread "Task worker for ':' Thread 4" [_thread_blocked, id=6476, stack(0x0000000023230000,0x0000000023330000)]
  0x000000001c7ca800 JavaThread "Task worker for ':' Thread 3" [_thread_blocked, id=1668, stack(0x0000000023130000,0x0000000023230000)]
  0x000000001c33a000 JavaThread "Task worker for ':' Thread 2" [_thread_blocked, id=5032, stack(0x0000000022a30000,0x0000000022b30000)]
  0x000000001c337800 JavaThread "Task worker for ':'" [_thread_in_Java, id=1860, stack(0x0000000022930000,0x0000000022a30000)]
  0x000000001c338800 JavaThread "Cache worker for Build Output Cleanup Cache (C:\Users\Administrator\Downloads\test\.gradle\buildOutputCleanup)" [_thread_blocked, id=7592, stack(0x0000000022830000,0x0000000022930000)]
  0x000000001c337000 JavaThread "Cache worker for task history cache (C:\Users\Administrator\Downloads\test\.gradle\4.4\taskHistory)" [_thread_blocked, id=6700, stack(0x0000000022730000,0x0000000022830000)]
  0x000000001c339000 JavaThread "Cache worker for file content cache (C:\Users\Administrator\Downloads\test\.gradle\4.4\fileContent)" [_thread_blocked, id=4484, stack(0x0000000022630000,0x0000000022730000)]
  0x000000001c333000 JavaThread "build operations Thread 6" [_thread_blocked, id=5936, stack(0x000000001fb60000,0x000000001fc60000)]
  0x000000001c336000 JavaThread "build operations Thread 5" [_thread_blocked, id=4368, stack(0x000000001fa60000,0x000000001fb60000)]
  0x000000001c334800 JavaThread "build operations Thread 4" [_thread_blocked, id=7076, stack(0x000000001f960000,0x000000001fa60000)]
  0x000000001c334000 JavaThread "build operations Thread 3" [_thread_blocked, id=6160, stack(0x000000001f860000,0x000000001f960000)]
  0x000000001c335800 JavaThread "build operations Thread 2" [_thread_blocked, id=7760, stack(0x000000001f760000,0x000000001f860000)]
  0x000000001c332800 JavaThread "build operations" [_thread_blocked, id=7548, stack(0x000000001f660000,0x000000001f760000)]
  0x000000001c330000 JavaThread "Cache worker for Artifact transforms cache (C:\Users\Administrator\.gradle\caches\transforms-1)" [_thread_blocked, id=2400, stack(0x000000001f360000,0x000000001f460000)]
  0x000000001c32f800 JavaThread "Cache worker for file hash cache (C:\Users\Administrator\Downloads\test\.gradle\4.4\fileHashes)" [_thread_blocked, id=4896, stack(0x000000001c830000,0x000000001c930000)]
  0x000000001c331800 JavaThread "Stdin handler" [_thread_blocked, id=4960, stack(0x000000001b260000,0x000000001b360000)]
  0x000000001c32b800 JavaThread "Asynchronous log dispatcher for DefaultDaemonConnection: socket connection from /127.0.0.1:51610 to /127.0.0.1:51634" [_thread_blocked, id=7900, stack(0x000000001b160000,0x000000001b260000)]
  0x000000001c32b000 JavaThread "Cancel handler" [_thread_blocked, id=5608, stack(0x000000001af60000,0x000000001b060000)]
  0x000000001c32e000 JavaThread "Handler for socket connection from /127.0.0.1:51610 to /127.0.0.1:51634" [_thread_in_native, id=6956, stack(0x000000001ac60000,0x000000001ad60000)]
  0x000000001c7ce000 JavaThread "Memory manager" [_thread_in_vm, id=7652, stack(0x0000000020360000,0x0000000020460000)]
  0x000000001c7cc800 JavaThread "pool-1-thread-1" [_thread_blocked, id=724, stack(0x0000000020060000,0x0000000020160000)]
  0x0000000018f38000 JavaThread "File lock request listener" [_thread_in_native, id=6888, stack(0x000000001b660000,0x000000001b760000)]
  0x0000000018f3a000 JavaThread "Cache worker for file hash cache (C:\Users\Administrator\.gradle\caches\4.4\fileHashes)" [_thread_blocked, id=1080, stack(0x000000001b560000,0x000000001b660000)]
  0x0000000019af9800 JavaThread "Daemon worker" [_thread_blocked, id=7952, stack(0x000000001b060000,0x000000001b160000)]
  0x0000000019a91000 JavaThread "Daemon" [_thread_blocked, id=4724, stack(0x000000001ab60000,0x000000001ac60000)]
  0x0000000019a76800 JavaThread "Daemon periodic checks" [_thread_blocked, id=5620, stack(0x000000001aa60000,0x000000001ab60000)]
  0x0000000019a3e000 JavaThread "Incoming local TCP Connector on port 51610" [_thread_in_native, id=1276, stack(0x000000001a850000,0x000000001a950000)]
  0x0000000019a18800 JavaThread "Daemon health stats" [_thread_blocked, id=3448, stack(0x000000001a270000,0x000000001a370000)]
  0x0000000018328000 JavaThread "Service Thread" daemon [_thread_blocked, id=5764, stack(0x00000000188a0000,0x00000000189a0000)]
  0x00000000182c4800 JavaThread "C1 CompilerThread2" daemon [_thread_blocked, id=7948, stack(0x00000000187a0000,0x00000000188a0000)]
  0x00000000182ab800 JavaThread "C2 CompilerThread1" daemon [_thread_in_native, id=4708, stack(0x00000000186a0000,0x00000000187a0000)]
=>0x0000000016505800 JavaThread "C2 CompilerThread0" daemon [_thread_in_native, id=7732, stack(0x00000000181a0000,0x00000000182a0000)]
  0x0000000016500000 JavaThread "Attach Listener" daemon [_thread_blocked, id=1412, stack(0x00000000180a0000,0x00000000181a0000)]
  0x00000000164ff000 JavaThread "Signal Dispatcher" daemon [_thread_blocked, id=5800, stack(0x0000000017fa0000,0x00000000180a0000)]
  0x00000000164ec800 JavaThread "Finalizer" daemon [_thread_blocked, id=5860, stack(0x0000000017da0000,0x0000000017ea0000)]
  0x0000000002941800 JavaThread "Reference Handler" daemon [_thread_blocked, id=7656, stack(0x0000000017ca0000,0x0000000017da0000)]
  0x0000000002851000 JavaThread "main" [_thread_blocked, id=6728, stack(0x0000000002720000,0x0000000002820000)]

Other Threads:
  0x00000000164c8000 VMThread [stack: 0x0000000017ba0000,0x0000000017ca0000] [id=1544]
  0x000000001832b000 WatcherThread [stack: 0x00000000189a0000,0x0000000018aa0000] [id=6060]

VM state:not at safepoint (normal execution)

VM Mutex/Monitor currently owned by a thread: None

Heap:
 PSYoungGen      total 210944K, used 49546K [0x00000000e0000000, 0x00000000ef280000, 0x0000000100000000)
  eden space 184832K, 12% used [0x00000000e0000000,0x00000000e16e63e8,0x00000000eb480000)
  from space 26112K, 99% used [0x00000000ed380000,0x00000000eecfc558,0x00000000eed00000)
  to   space 31744K, 0% used [0x00000000eb480000,0x00000000eb480000,0x00000000ed380000)
 ParOldGen       total 118784K, used 71855K [0x00000000a0000000, 0x00000000a7400000, 0x00000000e0000000)
  object space 118784K, 60% used [0x00000000a0000000,0x00000000a462bc60,0x00000000a7400000)
 Metaspace       used 71897K, capacity 74670K, committed 75008K, reserved 1114112K
  class space    used 9789K, capacity 10384K, committed 10496K, reserved 1048576K

Card table byte_map: [0x0000000011d10000,0x0000000012020000] byte_map_base: 0x0000000011810000

Marking Bits: (ParMarkBitMap*) 0x000000006c802f70
 Begin Bits: [0x0000000012820000, 0x0000000014020000)
 End Bits:   [0x0000000014020000, 0x0000000015820000)

Polling page: 0x00000000010a0000

CodeCache: size=245760Kb used=28978Kb max_used=29100Kb free=216781Kb
 bounds [0x0000000002950000, 0x00000000045e0000, 0x0000000011950000]
 total_blobs=10293 nmethods=9464 adapters=741
 compilation: enabled

Compilation events (10 events):
Event: 84.958 Thread 0x00000000182c4800 nmethod 10981 0x0000000002d45cd0 code [0x0000000002d45f00, 0x0000000002d46c98]
Event: 84.959 Thread 0x00000000182ab800 10979 %     4       java.util.TimSort::mergeLo @ 153 (659 bytes)
Event: 84.995 Thread 0x00000000182ab800 nmethod 10979% 0x0000000003612b90 code [0x0000000003612d40, 0x0000000003613dd8]
Event: 84.997 Thread 0x00000000182ab800 10982       4       java.util.TimSort::mergeLo (659 bytes)
Event: 85.024 Thread 0x00000000182c4800 10983       2       com.android.tools.r8.graph.DexValue$DexValueMethod::sort (5 bytes)
Event: 85.024 Thread 0x00000000182c4800 nmethod 10983 0x00000000045b3310 code [0x00000000045b3460, 0x00000000045b35b0]
Event: 85.026 Thread 0x00000000182c4800 10984       2       com.android.tools.r8.graph.DexEncodedMethod::collectMixedSectionItems (32 bytes)
Event: 85.028 Thread 0x00000000182c4800 nmethod 10984 0x0000000003942b50 code [0x0000000003942d00, 0x0000000003943068]
Event: 85.030 Thread 0x00000000182c4800 10988       2       java.util.ArrayList::forEach (75 bytes)
Event: 85.031 Thread 0x00000000182c4800 nmethod 10988 0x0000000003612390 code [0x0000000003612520, 0x00000000036128c8]

GC Heap History (10 events):
Event: 24.730 GC heap before
{Heap before GC invocations=15 (full 2):
 PSYoungGen      total 137216K, used 82578K [0x00000000e0000000, 0x00000000ea180000, 0x0000000100000000)
  eden space 123904K, 55% used [0x00000000e0000000,0x00000000e43aa6d8,0x00000000e7900000)
  from space 13312K, 99% used [0x00000000e8a00000,0x00000000e96fa250,0x00000000e9700000)
  to   space 17408K, 0% used [0x00000000e7900000,0x00000000e7900000,0x00000000e8a00000)
 ParOldGen       total 72704K, used 27271K [0x00000000a0000000, 0x00000000a4700000, 0x00000000e0000000)
  object space 72704K, 37% used [0x00000000a0000000,0x00000000a1aa1dd8,0x00000000a4700000)
 Metaspace       used 57500K, capacity 59030K, committed 59136K, reserved 1099776K
  class space    used 8033K, capacity 8392K, committed 8448K, reserved 1048576K
Event: 24.768 GC heap after
Heap after GC invocations=15 (full 2):
 PSYoungGen      total 141312K, used 12763K [0x00000000e0000000, 0x00000000ebf80000, 0x0000000100000000)
  eden space 123904K, 0% used [0x00000000e0000000,0x00000000e0000000,0x00000000e7900000)
  from space 17408K, 73% used [0x00000000e7900000,0x00000000e8576ec0,0x00000000e8a00000)
  to   space 18432K, 0% used [0x00000000ead80000,0x00000000ead80000,0x00000000ebf80000)
 ParOldGen       total 72704K, used 37477K [0x00000000a0000000, 0x00000000a4700000, 0x00000000e0000000)
  object space 72704K, 51% used [0x00000000a0000000,0x00000000a2499728,0x00000000a4700000)
 Metaspace       used 57500K, capacity 59030K, committed 59136K, reserved 1099776K
  class space    used 8033K, capacity 8392K, committed 8448K, reserved 1048576K
}
Event: 24.768 GC heap before
{Heap before GC invocations=16 (full 3):
 PSYoungGen      total 141312K, used 12763K [0x00000000e0000000, 0x00000000ebf80000, 0x0000000100000000)
  eden space 123904K, 0% used [0x00000000e0000000,0x00000000e0000000,0x00000000e7900000)
  from space 17408K, 73% used [0x00000000e7900000,0x00000000e8576ec0,0x00000000e8a00000)
  to   space 18432K, 0% used [0x00000000ead80000,0x00000000ead80000,0x00000000ebf80000)
 ParOldGen       total 72704K, used 37477K [0x00000000a0000000, 0x00000000a4700000, 0x00000000e0000000)
  object space 72704K, 51% used [0x00000000a0000000,0x00000000a2499728,0x00000000a4700000)
 Metaspace       used 57500K, capacity 59030K, committed 59136K, reserved 1099776K
  class space    used 8033K, capacity 8392K, committed 8448K, reserved 1048576K
Event: 25.111 GC heap after
Heap after GC invocations=16 (full 3):
 PSYoungGen      total 141312K, used 0K [0x00000000e0000000, 0x00000000ebf80000, 0x0000000100000000)
  eden space 123904K, 0% used [0x00000000e0000000,0x00000000e0000000,0x00000000e7900000)
  from space 17408K, 0% used [0x00000000e7900000,0x00000000e7900000,0x00000000e8a00000)
  to   space 18432K, 0% used [0x00000000ead80000,0x00000000ead80000,0x00000000ebf80000)
 ParOldGen       total 118784K, used 40918K [0x00000000a0000000, 0x00000000a7400000, 0x00000000e0000000)
  object space 118784K, 34% used [0x00000000a0000000,0x00000000a27f58e0,0x00000000a7400000)
 Metaspace       used 57500K, capacity 59030K, committed 59136K, reserved 1099776K
  class space    used 8033K, capacity 8392K, committed 8448K, reserved 1048576K
}
Event: 30.139 GC heap before
{Heap before GC invocations=17 (full 3):
 PSYoungGen      total 141312K, used 123890K [0x00000000e0000000, 0x00000000ebf80000, 0x0000000100000000)
  eden space 123904K, 99% used [0x00000000e0000000,0x00000000e78fca40,0x00000000e7900000)
  from space 17408K, 0% used [0x00000000e7900000,0x00000000e7900000,0x00000000e8a00000)
  to   space 18432K, 0% used [0x00000000ead80000,0x00000000ead80000,0x00000000ebf80000)
 ParOldGen       total 118784K, used 40918K [0x00000000a0000000, 0x00000000a7400000, 0x00000000e0000000)
  object space 118784K, 34% used [0x00000000a0000000,0x00000000a27f58e0,0x00000000a7400000)
 Metaspace       used 65457K, capacity 67594K, committed 67840K, reserved 1107968K
  class space    used 9138K, capacity 9632K, committed 9728K, reserved 1048576K
Event: 30.210 GC heap after
Heap after GC invocations=17 (full 3):
 PSYoungGen      total 168448K, used 18416K [0x00000000e0000000, 0x00000000ecd80000, 0x0000000100000000)
  eden space 150016K, 0% used [0x00000000e0000000,0x00000000e0000000,0x00000000e9280000)
  from space 18432K, 99% used [0x00000000ead80000,0x00000000ebf7c328,0x00000000ebf80000)
  to   space 27648K, 0% used [0x00000000e9280000,0x00000000e9280000,0x00000000ead80000)
 ParOldGen       total 118784K, used 58946K [0x00000000a0000000, 0x00000000a7400000, 0x00000000e0000000)
  object space 118784K, 49% used [0x00000000a0000000,0x00000000a39909e0,0x00000000a7400000)
 Metaspace       used 65457K, capacity 67594K, committed 67840K, reserved 1107968K
  class space    used 9138K, capacity 9632K, committed 9728K, reserved 1048576K
}
Event: 33.226 GC heap before
{Heap before GC invocations=18 (full 3):
 PSYoungGen      total 168448K, used 168432K [0x00000000e0000000, 0x00000000ecd80000, 0x0000000100000000)
  eden space 150016K, 100% used [0x00000000e0000000,0x00000000e9280000,0x00000000e9280000)
  from space 18432K, 99% used [0x00000000ead80000,0x00000000ebf7c328,0x00000000ebf80000)
  to   space 27648K, 0% used [0x00000000e9280000,0x00000000e9280000,0x00000000ead80000)
 ParOldGen       total 118784K, used 58946K [0x00000000a0000000, 0x00000000a7400000, 0x00000000e0000000)
  object space 118784K, 49% used [0x00000000a0000000,0x00000000a39909e0,0x00000000a7400000)
 Metaspace       used 70860K, capacity 73352K, committed 73600K, reserved 1112064K
  class space    used 9747K, capacity 10263K, committed 10368K, reserved 1048576K
Event: 33.293 GC heap after
Heap after GC invocations=18 (full 3):
 PSYoungGen      total 177664K, used 12532K [0x00000000e0000000, 0x00000000eed00000, 0x0000000100000000)
  eden space 150016K, 0% used [0x00000000e0000000,0x00000000e0000000,0x00000000e9280000)
  from space 27648K, 45% used [0x00000000e9280000,0x00000000e9ebd338,0x00000000ead80000)
  to   space 26112K, 0% used [0x00000000ed380000,0x00000000ed380000,0x00000000eed00000)
 ParOldGen       total 118784K, used 66935K [0x00000000a0000000, 0x00000000a7400000, 0x00000000e0000000)
  object space 118784K, 56% used [0x00000000a0000000,0x00000000a415dea8,0x00000000a7400000)
 Metaspace       used 70860K, capacity 73352K, committed 73600K, reserved 1112064K
  class space    used 9747K, capacity 10263K, committed 10368K, reserved 1048576K
}
Event: 84.709 GC heap before
{Heap before GC invocations=19 (full 3):
 PSYoungGen      total 177664K, used 162548K [0x00000000e0000000, 0x00000000eed00000, 0x0000000100000000)
  eden space 150016K, 100% used [0x00000000e0000000,0x00000000e9280000,0x00000000e9280000)
  from space 27648K, 45% used [0x00000000e9280000,0x00000000e9ebd338,0x00000000ead80000)
  to   space 26112K, 0% used [0x00000000ed380000,0x00000000ed380000,0x00000000eed00000)
 ParOldGen       total 118784K, used 66935K [0x00000000a0000000, 0x00000000a7400000, 0x00000000e0000000)
  object space 118784K, 56% used [0x00000000a0000000,0x00000000a415dea8,0x00000000a7400000)
 Metaspace       used 71878K, capacity 74568K, committed 74624K, reserved 1114112K
  class space    used 9787K, capacity 10351K, committed 10368K, reserved 1048576K
Event: 84.770 GC heap after
Heap after GC invocations=19 (full 3):
 PSYoungGen      total 210944K, used 26097K [0x00000000e0000000, 0x00000000ef280000, 0x0000000100000000)
  eden space 184832K, 0% used [0x00000000e0000000,0x00000000e0000000,0x00000000eb480000)
  from space 26112K, 99% used [0x00000000ed380000,0x00000000eecfc558,0x00000000eed00000)
  to   space 31744K, 0% used [0x00000000eb480000,0x00000000eb480000,0x00000000ed380000)
 ParOldGen       total 118784K, used 71855K [0x00000000a0000000, 0x00000000a7400000, 0x00000000e0000000)
  object space 118784K, 60% used [0x00000000a0000000,0x00000000a462bc60,0x00000000a7400000)
 Metaspace       used 71878K, capacity 74568K, committed 74624K, reserved 1114112K
  class space    used 9787K, capacity 10351K, committed 10368K, reserved 1048576K
}

Deoptimization events (10 events):
Event: 84.374 Thread 0x000000001c7cf800 Uncommon trap: reason=bimorphic action=maybe_recompile pc=0x0000000003f629a4 method=java.util.Comparators$NaturalOrderComparator.compare(Ljava/lang/Comparable;Ljava/lang/Comparable;)I @ 2
Event: 84.374 Thread 0x000000001c7d3800 Uncommon trap: reason=unstable_if action=reinterpret pc=0x0000000003fd4604 method=com.android.tools.r8.it.unimi.dsi.fastutil.objects.Object2IntLinkedOpenHashMap.insert(Ljava/lang/Object;I)I @ 117
Event: 84.374 Thread 0x000000001c7d3800 Uncommon trap: reason=unstable_if action=reinterpret pc=0x0000000003227bb4 method=com.android.tools.r8.it.unimi.dsi.fastutil.objects.Object2IntLinkedOpenHashMap.insert(Ljava/lang/Object;I)I @ 117
Event: 84.375 Thread 0x000000001c7d3800 Uncommon trap: reason=array_check action=maybe_recompile pc=0x0000000004519100 method=java.util.TimSort.reverseRange([Ljava/lang/Object;II)V @ 27
Event: 84.375 Thread 0x000000001c7d3800 Uncommon trap: reason=unstable_if action=reinterpret pc=0x0000000003fdda20 method=com.android.tools.r8.dex.FileWriter.sizeOfCodeItem(Lcom/android/tools/r8/graph/DexCode;)I @ 76
Event: 84.375 Thread 0x000000001c7d3800 Uncommon trap: reason=bimorphic action=maybe_recompile pc=0x000000000407ab70 method=com.android.tools.r8.it.unimi.dsi.fastutil.objects.Object2IntLinkedOpenHashMap.getInt(Ljava/lang/Object;)I @ 35
Event: 84.376 Thread 0x000000001c7d3800 Uncommon trap: reason=bimorphic action=maybe_recompile pc=0x000000000407ab70 method=com.android.tools.r8.it.unimi.dsi.fastutil.objects.Object2IntLinkedOpenHashMap.getInt(Ljava/lang/Object;)I @ 35
Event: 84.376 Thread 0x000000001c7d3800 Uncommon trap: reason=bimorphic action=maybe_recompile pc=0x000000000407ab70 method=com.android.tools.r8.it.unimi.dsi.fastutil.objects.Object2IntLinkedOpenHashMap.getInt(Ljava/lang/Object;)I @ 35
Event: 84.376 Thread 0x000000001c7d3800 Uncommon trap: reason=bimorphic action=maybe_recompile pc=0x000000000407ab70 method=com.android.tools.r8.it.unimi.dsi.fastutil.objects.Object2IntLinkedOpenHashMap.getInt(Ljava/lang/Object;)I @ 35
Event: 84.653 Thread 0x000000001c7d3800 Uncommon trap: reason=unloaded action=reinterpret pc=0x0000000003e9a264 method=com.android.tools.r8.code.BaseInstructionFactory.create(IILcom/android/tools/r8/code/BytecodeStream;Lcom/android/tools/r8/graph/OffsetToObjectMapping;)Lcom/android/tools/r8/code

Internal exceptions (10 events):
Event: 82.473 Thread 0x0000000019af9800 Exception <a 'sun/nio/fs/WindowsException'> (0x00000000e1446138) thrown at [C:\re\workspace\8-2-build-windows-amd64-cygwin\jdk8u91\6644\hotspot\src\share\vm\prims\jni.cpp, line 709]
Event: 82.473 Thread 0x0000000019af9800 Exception <a 'sun/nio/fs/WindowsException'> (0x00000000e1447e18) thrown at [C:\re\workspace\8-2-build-windows-amd64-cygwin\jdk8u91\6644\hotspot\src\share\vm\prims\jni.cpp, line 709]
Event: 82.473 Thread 0x0000000019af9800 Exception <a 'sun/nio/fs/WindowsException'> (0x00000000e1448b00) thrown at [C:\re\workspace\8-2-build-windows-amd64-cygwin\jdk8u91\6644\hotspot\src\share\vm\prims\jni.cpp, line 709]
Event: 82.474 Thread 0x0000000019af9800 Exception <a 'sun/nio/fs/WindowsException'> (0x00000000e144ccd0) thrown at [C:\re\workspace\8-2-build-windows-amd64-cygwin\jdk8u91\6644\hotspot\src\share\vm\prims\jni.cpp, line 709]
Event: 82.474 Thread 0x0000000019af9800 Exception <a 'sun/nio/fs/WindowsException'> (0x00000000e144d838) thrown at [C:\re\workspace\8-2-build-windows-amd64-cygwin\jdk8u91\6644\hotspot\src\share\vm\prims\jni.cpp, line 709]
Event: 82.474 Thread 0x0000000019af9800 Exception <a 'sun/nio/fs/WindowsException'> (0x00000000e144f3d8) thrown at [C:\re\workspace\8-2-build-windows-amd64-cygwin\jdk8u91\6644\hotspot\src\share\vm\prims\jni.cpp, line 709]
Event: 82.474 Thread 0x0000000019af9800 Exception <a 'sun/nio/fs/WindowsException'> (0x00000000e144ff80) thrown at [C:\re\workspace\8-2-build-windows-amd64-cygwin\jdk8u91\6644\hotspot\src\share\vm\prims\jni.cpp, line 709]
Event: 84.338 Thread 0x000000001c7cd800 Exception <a 'sun/nio/fs/WindowsException'> (0x00000000e6c8fdc0) thrown at [C:\re\workspace\8-2-build-windows-amd64-cygwin\jdk8u91\6644\hotspot\src\share\vm\prims\jni.cpp, line 709]
Event: 84.377 Thread 0x000000001c7d3800 Exception <a 'sun/nio/fs/WindowsException'> (0x00000000e6d53920) thrown at [C:\re\workspace\8-2-build-windows-amd64-cygwin\jdk8u91\6644\hotspot\src\share\vm\prims\jni.cpp, line 709]
Event: 84.563 Thread 0x000000001c337800 Exception <a 'sun/nio/fs/WindowsException'> (0x00000000e7225940) thrown at [C:\re\workspace\8-2-build-windows-amd64-cygwin\jdk8u91\6644\hotspot\src\share\vm\prims\jni.cpp, line 709]

Events (10 events):
Event: 85.000 Thread 0x000000001c337800 DEOPT PACKING pc=0x0000000003fd0b99 sp=0x0000000022a2c620
Event: 85.000 Thread 0x000000001c337800 DEOPT UNPACKING pc=0x00000000029971bf sp=0x0000000022a2c390 mode 0
Event: 85.003 Thread 0x000000001c337800 DEOPT PACKING pc=0x0000000003fd0b99 sp=0x0000000022a2c620
Event: 85.003 Thread 0x000000001c337800 DEOPT UNPACKING pc=0x00000000029971bf sp=0x0000000022a2c390 mode 0
Event: 85.007 Thread 0x000000001c337800 DEOPT PACKING pc=0x0000000003fd0b99 sp=0x0000000022a2c620
Event: 85.007 Thread 0x000000001c337800 DEOPT UNPACKING pc=0x00000000029971bf sp=0x0000000022a2c390 mode 0
Event: 85.011 Thread 0x000000001c337800 DEOPT PACKING pc=0x0000000003fd0b99 sp=0x0000000022a2c620
Event: 85.011 Thread 0x000000001c337800 DEOPT UNPACKING pc=0x00000000029971bf sp=0x0000000022a2c390 mode 0
Event: 85.014 Thread 0x000000001c337800 DEOPT PACKING pc=0x0000000003fd0b99 sp=0x0000000022a2c620
Event: 85.014 Thread 0x000000001c337800 DEOPT UNPACKING pc=0x00000000029971bf sp=0x0000000022a2c390 mode 0


Dynamic libraries:
0x00007ff7f8b40000 - 0x00007ff7f8b77000 	C:\Program Files\Java\jdk1.8.0_91\bin\java.exe
0x00007ffb0b200000 - 0x00007ffb0b3ad000 	C:\Windows\SYSTEM32\ntdll.dll
0x00007ffb08ee0000 - 0x00007ffb0901e000 	C:\Windows\system32\KERNEL32.DLL
0x00007ffb08770000 - 0x00007ffb08886000 	C:\Windows\system32\KERNELBASE.dll
0x00007ffb06f50000 - 0x00007ffb06fde000 	C:\Windows\system32\apphelp.dll
0x00007ffafdf10000 - 0x00007ffafdf63000 	C:\Windows\AppPatch\AppPatch64\AcGenral.DLL
0x00007ffb0ac10000 - 0x00007ffb0acba000 	C:\Windows\system32\msvcrt.dll
0x00007ffb084b0000 - 0x00007ffb084de000 	C:\Windows\system32\SspiCli.dll
0x00007ffb08d50000 - 0x00007ffb08da4000 	C:\Windows\system32\SHLWAPI.dll
0x00007ffb0aa90000 - 0x00007ffb0ac07000 	C:\Windows\system32\USER32.dll
0x00007ffb0b060000 - 0x00007ffb0b1f4000 	C:\Windows\system32\ole32.dll
0x00007ffb09040000 - 0x00007ffb0a56c000 	C:\Windows\system32\SHELL32.dll
0x00007ffb078f0000 - 0x00007ffb07911000 	C:\Windows\SYSTEM32\USERENV.dll
0x00007ffb0ad60000 - 0x00007ffb0ae0a000 	C:\Windows\system32\ADVAPI32.dll
0x00007ffb01e80000 - 0x00007ffb01e9e000 	C:\Windows\SYSTEM32\MPR.dll
0x00007ffb0a730000 - 0x00007ffb0a870000 	C:\Windows\system32\RPCRT4.dll
0x00007ffb0a570000 - 0x00007ffb0a5c9000 	C:\Windows\SYSTEM32\sechost.dll
0x00007ffb0a870000 - 0x00007ffb0aa82000 	C:\Windows\SYSTEM32\combase.dll
0x00007ffb0af10000 - 0x00007ffb0b05b000 	C:\Windows\system32\GDI32.dll
0x00007ffb08330000 - 0x00007ffb08345000 	C:\Windows\SYSTEM32\profapi.dll
0x00007ffb06980000 - 0x00007ffb06a32000 	C:\Windows\SYSTEM32\SHCORE.dll
0x00007ffb0acc0000 - 0x00007ffb0acf6000 	C:\Windows\system32\IMM32.DLL
0x00007ffb0a5d0000 - 0x00007ffb0a721000 	C:\Windows\system32\MSCTF.dll
0x00007ffb06140000 - 0x00007ffb063bb000 	C:\Windows\WinSxS\amd64_microsoft.windows.common-controls_6595b64144ccf1df_6.0.9600.18006_none_623f33d3ecbe86e8\COMCTL32.dll
0x000000006c890000 - 0x000000006c962000 	C:\Program Files\Java\jdk1.8.0_91\jre\bin\msvcr100.dll
0x000000006bff0000 - 0x000000006c883000 	C:\Program Files\Java\jdk1.8.0_91\jre\bin\server\jvm.dll
0x00007ffb01490000 - 0x00007ffb01499000 	C:\Windows\SYSTEM32\WSOCK32.dll
0x00007ffb03660000 - 0x00007ffb03682000 	C:\Windows\SYSTEM32\WINMM.dll
0x00007ffb00e10000 - 0x00007ffb00e1a000 	C:\Windows\SYSTEM32\VERSION.dll
0x00007ffb0ae10000 - 0x00007ffb0ae17000 	C:\Windows\system32\PSAPI.DLL
0x00007ffb08db0000 - 0x00007ffb08e0a000 	C:\Windows\system32\WS2_32.dll
0x00007ffb03610000 - 0x00007ffb0363a000 	C:\Windows\SYSTEM32\WINMMBASE.dll
0x00007ffb09020000 - 0x00007ffb09029000 	C:\Windows\system32\NSI.dll
0x00007ffb08720000 - 0x00007ffb0876f000 	C:\Windows\SYSTEM32\cfgmgr32.dll
0x00007ffb071d0000 - 0x00007ffb071f8000 	C:\Windows\SYSTEM32\DEVOBJ.dll
0x000000006bfe0000 - 0x000000006bfef000 	C:\Program Files\Java\jdk1.8.0_91\jre\bin\verify.dll
0x000000006bfb0000 - 0x000000006bfd9000 	C:\Program Files\Java\jdk1.8.0_91\jre\bin\java.dll
0x000000006bf90000 - 0x000000006bfa6000 	C:\Program Files\Java\jdk1.8.0_91\jre\bin\zip.dll
0x000000006bf70000 - 0x000000006bf8a000 	C:\Program Files\Java\jdk1.8.0_91\jre\bin\net.dll
0x00007ffb07b60000 - 0x00007ffb07bb9000 	C:\Windows\system32\mswsock.dll
0x000000006bf50000 - 0x000000006bf61000 	C:\Program Files\Java\jdk1.8.0_91\jre\bin\nio.dll
0x00007ffafe890000 - 0x00007ffafe8ae000 	C:\Users\Administrator\.gradle\native\25\windows-amd64\native-platform.dll
0x000000006bf40000 - 0x000000006bf4d000 	C:\Program Files\Java\jdk1.8.0_91\jre\bin\management.dll
0x00007ffb07bc0000 - 0x00007ffb07be0000 	C:\Windows\SYSTEM32\CRYPTSP.dll
0x00007ffb07800000 - 0x00007ffb07836000 	C:\Windows\system32\rsaenh.dll
0x00007ffb07e10000 - 0x00007ffb07e36000 	C:\Windows\SYSTEM32\bcrypt.dll
0x00007ffb08130000 - 0x00007ffb08193000 	C:\Windows\system32\bcryptprimitives.dll
0x00007ffb082a0000 - 0x00007ffb082ab000 	C:\Windows\SYSTEM32\CRYPTBASE.dll
0x00007ffb04780000 - 0x00007ffb047aa000 	C:\Windows\SYSTEM32\IPHLPAPI.DLL
0x00007ffb04760000 - 0x00007ffb0476a000 	C:\Windows\SYSTEM32\WINNSI.DLL
0x00007ffb04590000 - 0x00007ffb045a6000 	C:\Windows\SYSTEM32\dhcpcsvc6.DLL
0x00007ffb04570000 - 0x00007ffb0458a000 	C:\Windows\SYSTEM32\dhcpcsvc.DLL
0x00007ffaf7240000 - 0x00007ffaf73c9000 	C:\Windows\system32\DBGHELP.DLL

VM Arguments:
jvm_args: -Xmx1536m -Dfile.encoding=windows-1252 -Duser.country=FR -Duser.language=fr -Duser.variant 
java_command: org.gradle.launcher.daemon.bootstrap.GradleDaemon 4.4
java_class_path (initial): C:\Users\Administrator\.gradle\wrapper\dists\gradle-4.4-all\9br9xq1tocpiv8o6njlyu5op1\gradle-4.4\lib\gradle-launcher-4.4.jar
Launcher Type: SUN_STANDARD

Environment Variables:
PATH=C:\ProgramData\Oracle\Java\javapath;C:\Windows\system32;C:\Windows;C:\Windows\System32\Wbem;C:\Windows\System32\WindowsPowerShell\v1.0\;C:\wamp64\bin\php\php5.6.25;C:\ProgramData\ComposerSetup\bin;C:\Program Files\Git\cmd;C:\Program Files\nodejs\;c:\Python27\;c:\Python27\Scripts\ ;C:\Program Files (x86)\Brackets\command;C:\Program Files (x86)\Microsoft Emulator Manager\1.0\;C:\Users\Administrator\AppData\Roaming\Composer\vendor\bin;C:\Users\Administrator\AppData\Roaming\npm
USERNAME=Administrator
OS=Windows_NT
PROCESSOR_IDENTIFIER=Intel64 Family 6 Model 79 Stepping 1, GenuineIntel



---------------  S Y S T E M  ---------------

OS: Windows Server 2012 R2 , 64 bit Build 9600 (6.3.9600.17415)

CPU:total 6 (8 cores per cpu, 1 threads per core) family 6 model 79 stepping 1, cmov, cx8, fxsr, mmx, sse, sse2, sse3, 3dnowpref, tsc

Memory: 4k page, physical 6290996k(544436k free), swap 9035992k(167432k free)

vm_info: Java HotSpot(TM) 64-Bit Server VM (25.91-b14) for windows-amd64 JRE (1.8.0_91-b14), built on Apr  1 2016 00:58:32 by "java_re" with MS VC++ 10.0 (VS2010)

time: Mon Jul 16 14:17:10 2018
elapsed time: 90 seconds (0d 0h 1m 30s)

